<?xml version="1.0" standalone="no"?>
<!DOCTYPE svg PUBLIC "-//W3C//DTD SVG 1.1//EN" "http://www.w3.org/Graphics/SVG/1.1/DTD/svg11.dtd" >
<!--
2013-9-30: Created.
-->
<svg>
<metadata>
Created by iconfont
</metadata>
<defs>

<font id="iconfont" horiz-adv-x="1024" >
  <font-face
    font-family="iconfont"
    font-weight="500"
    font-stretch="normal"
    units-per-em="1024"
    ascent="896"
    descent="-128"
  />
    <missing-glyph />
    
    <glyph glyph-name="weep" unicode="&#58952;" d="M512-128c-69.111 0-136.165 13.54-199.299 40.244-60.971 25.789-115.724 62.703-162.74 109.717s-83.929 101.768-109.718 162.739c-26.703 63.135-40.243 130.188-40.243 199.299s13.54 136.165 40.243 199.299c25.789 60.971 62.703 115.724 109.718 162.74 47.015 47.015 101.769 83.93 162.74 109.718 63.134 26.704 130.188 40.244 199.299 40.244 69.111 0 136.164-13.54 199.299-40.243 60.971-25.789 115.724-62.703 162.74-109.718 47.015-47.015 83.93-101.769 109.717-162.74 26.704-63.135 40.244-130.188 40.244-199.299s-13.54-136.165-40.244-199.299c-25.789-60.971-62.703-115.724-109.717-162.74s-101.768-83.93-162.74-109.717c-63.135-26.704-130.188-40.244-199.299-40.244zM512 858.233c-261.494 0-474.233-212.74-474.233-474.233s212.74-474.233 474.233-474.233 474.232 212.74 474.232 474.233-212.739 474.233-474.232 474.233zM773.421 494.792h-116.185c-16.037 0-29.050 13.011-29.050 29.039 0 16.035 13.013 29.045 29.050 29.045h116.185c16.037 0 29.050-13.010 29.050-29.045 0-16.027-13.013-29.039-29.050-29.039v0zM366.769 494.792h-116.191c-16.030 0-29.044 13.011-29.044 29.039 0 16.035 13.013 29.045 29.044 29.045h116.191c16.030 0 29.044-13.010 29.044-29.045 0-16.027-13.013-29.039-29.044-29.039v0zM599.139 66.426c-7.434 0-14.871 2.843-20.534 8.508-4.153 4.157-26.695 13.272-66.603 13.272-39.91 0-62.452-9.115-66.609-13.272-11.327-11.322-29.74-11.322-41.071 0-11.325 11.327-11.357 29.739 0 41.067 27.332 27.329 84.411 30.293 107.679 30.293 23.264 0 80.342-2.965 107.675-30.293 11.356-11.328 11.356-29.74 0-41.067-5.662-5.665-13.101-8.508-20.537-8.508v0zM715.329 320.541c-16.035 0-29.049 13.011-29.049 29.044l0 58.082c0 16.032 13.013 29.045 29.049 29.045 16.030 0 29.044-13.012 29.044-29.045v-58.082c-0.001-16.032-13.014-29.044-29.044-29.044v0zM715.329 146.293c-16.035 0-29.049 13.011-29.049 29.037v58.083c0 16.033 13.013 29.045 29.049 29.045 16.030 0 29.044-13.011 29.044-29.045v-58.083c-0.001-16.026-13.014-29.037-29.044-29.037v0zM308.671 320.541c-16.030 0-29.044 13.011-29.044 29.044v58.082c0 16.032 13.013 29.045 29.044 29.045 16.037 0 29.050-13.012 29.050-29.045v-58.082c0-16.032-13.014-29.044-29.050-29.044v0zM308.671 146.293c-16.030 0-29.044 13.011-29.044 29.037v58.083c0 16.033 13.013 29.045 29.044 29.045 16.037 0 29.050-13.011 29.050-29.045v-58.083c0-16.026-13.014-29.037-29.050-29.037v0zM308.671 146.293z"  horiz-adv-x="1024" />

    
    <glyph glyph-name="zhongguoguoqi" unicode="&#58916;" d="M0 736h1024v-704H0v704zM580.224 477.824l-27.776-32 2.176 42.688-40.512 17.024 40.576 10.688 4.224 42.688 23.488-36.224 42.624 10.688-27.776-34.24 23.488-36.224-40.512 14.912z m-106.688 121.6l-42.624-6.4 29.824 32-19.2 36.224 38.464-17.024 32 29.888-4.288-42.688 38.464-19.136-42.752-8.576-6.4-42.688-23.488 38.4z m17.088-392.576l-25.536-34.112v42.624l-40.576 15.04 40.576 12.736 2.112 42.752 25.6-34.112 42.624 10.624-25.536-34.112 23.424-36.288c-2.112 2.112-42.688 14.848-42.688 14.848zM569.536 326.4l-38.336-17.024 19.2 38.336-29.888 32 42.688-6.4 21.312 38.4 6.4-42.624 42.688-8.512-38.464-21.376 4.288-42.688-29.888 29.888z m-296.448 32L166.4 281.6l40.576 125.824L100.224 486.4l132.224 2.112 40.576 123.776 42.752-125.888L448 484.224 341.312 405.312l40.512-125.76L273.088 358.4z"  horiz-adv-x="1024" />

    
    <glyph glyph-name="meiguoguoqi1" unicode="&#58883;" d="M32 714.24h960v-660H32zM32 714.24h960v-43.68H32v43.68z m0-88.32h960v-43.68H32v43.68z m0-87.84h960V494.4H32v43.68z m0-87.84h960v-43.68H32v43.68z m0-88.32h960v-43.68H32v43.68z m0-87.84h960v-43.68H32v43.68z m0-88.32h960v-43.68H32v43.68z m0-87.84h960v-43.68H32v43.68z m0 0M32 714.24h420v-307.68H32zM92.48 652.3199999999999l-14.88-11.52 5.28 18.72-14.88 12h18.72l6.24 18.72 6.24-18.72h18.72l-14.88-12 5.28-18.72-15.84 11.52z m98.4 0L176 640.8l5.28 18.72-14.88 12h18.72l6.24 18.72 6.24-18.72h18.72l-14.88-12 5.28-18.72-15.84 11.52z m98.88 0l-14.88-11.52 5.28 18.72-14.88 12h18.72l6.24 18.72 6.24-18.72H315.2l-14.88-12 5.28-18.72-15.84 11.52z m98.4-1.92l-14.88-11.52 5.28 19.2-14.88 12 18.72 0.48 6.24 19.2 6.24-19.2 18.72-0.48-14.88-12 5.28-19.2-15.84 11.52zM130.88 600.48l-14.88-11.52 5.28 18.72-14.88 12h18.72l6.24 18.72 5.76-18.72h18.72l-14.88-12 5.28-18.72-15.36 11.52z m110.88 0l-14.88-11.52 5.28 18.72-14.88 12h18.72l6.24 18.72 6.24-18.72H267.2l-14.88-12 5.28-18.72-15.84 11.52z m110.4 0l-14.88-11.52 5.28 18.72-14.88 12h18.72l6.24 18.72 6.24-18.72H377.6l-14.88-12 5.28-18.72-15.84 11.52zM92.48 548.64l-14.88-11.52 5.28 18.72-14.88 12h18.72l6.24 18.72 6.24-18.72h18.72l-14.88-12 5.28-18.72-15.84 11.52z m98.4 0L176 537.6l5.28 18.72-14.88 12h18.72l6.24 18.72 6.24-18.72h18.72l-14.88-12 5.28-18.72-15.84 11.04z m98.88 0l-14.88-11.52 5.28 18.72-14.88 12h18.72l6.24 18.72 6.24-18.72H315.2l-14.88-12 5.28-18.72-15.84 11.52z m98.4-1.44l-14.88-11.52 5.28 19.2-14.88 12 18.72 0.48 6.24 19.2 6.24-19.2 18.72-0.48-14.88-12 5.28-19.2-15.84 11.52zM92.48 445.44l-14.88-11.52 5.28 18.72-14.88 12h18.72l6.24 18.72 6.24-18.72h18.72l-14.88-12 5.28-18.72-15.84 11.52z m98.4 0L176 433.92l5.28 18.72-14.88 12h18.72l6.24 18.72 6.24-18.72h18.72l-14.88-12 5.28-18.72-15.84 11.52z m98.88 0l-14.88-11.52 5.28 18.72-14.88 12h18.72l6.24 18.72 6.24-18.72H315.2l-14.88-12 5.28-18.72-15.84 11.52z m98.4-1.92L373.28 432l5.28 19.2-14.88 12 18.72 0.48 6.24 19.2 6.24-19.2 18.72-0.48-15.36-12 5.28-19.2-15.36 11.52zM130.88 496.8l-14.88-11.52 5.28 18.72-14.88 12h18.72l6.24 18.72 5.76-18.72h18.72L140.48 504l5.28-18.72-14.88 11.52z m110.88 0l-14.88-11.52 5.28 18.72-14.88 12h18.72l6.24 18.72 6.24-18.72H267.2L251.84 504l5.28-18.72-15.36 11.52z m110.4 0l-14.88-11.52 5.28 18.72-14.88 12h18.72l6.24 18.72 6.24-18.72H377.6L362.24 504l5.28-18.72-15.36 11.52z m0 0"  horiz-adv-x="1024" />

    
    <glyph glyph-name="home" unicode="&#58918;" d="M992 454.4 601.6 857.6C576 883.2 544 896 512 896 480 896 448 883.2 422.4 857.6L32 454.4C-6.4 409.6 0 377.6 6.4 358.4 6.4 352 25.6 320 70.4 320L128 320l0-313.6C128-64 179.2-128 249.6-128l64 0 102.4 0 0 70.4 0 256C416 236.8 409.6 256 448 256l64 0 64 0c38.4 0 32-19.2 32-57.6l0-256L608-128l102.4 0 64 0c70.4 0 121.6 64 121.6 134.4L896 320l57.6 0c44.8 0 64 32 64 38.4C1024 377.6 1030.4 409.6 992 454.4zM953.6 384l-51.2 0-32 0L832 384l0-377.6c0-38.4-25.6-70.4-57.6-70.4l-102.4 0 0 262.4C672 268.8 646.4 320 576 320L512 320 448 320c-70.4 0-96-51.2-96-121.6L352-64 249.6-64C217.6-64 192-25.6 192 6.4L192 384 153.6 384 121.6 384 70.4 384c0 0 0 6.4 0 6.4 0 6.4 6.4 12.8 12.8 19.2l390.4 403.2C480 825.6 499.2 832 512 832c12.8 0 32-6.4 44.8-19.2l390.4-403.2C947.2 403.2 953.6 390.4 953.6 384 953.6 390.4 953.6 384 953.6 384z"  horiz-adv-x="1024" />

    
    <glyph glyph-name="list" unicode="&#58941;" d="M800.9 531.8c6.4-11.3 12-22.9 16.9-35 14.6-35.9 22-73.9 22-112.9s-7.4-77-22-112.9c-4.9-12.1-10.6-23.8-16.9-35l-148 148 148 147.8m7.6 120.7L539.8 383.79999999999995l268.7-268.7c148.4 148.4 148.4 389 0 537.4zM363.9 672.9c11.3 6.4 22.9 12 35 16.9 35.9 14.6 73.9 22 112.9 22s77-7.4 112.9-22c12.1-4.9 23.8-10.6 35-16.9l-148-148-147.8 148m-120.8 7.6l268.7-268.7 268.7 268.7c-148.4 148.4-389 148.4-537.4 0zM223.1 532.1l148-148-148-148c-6.4 11.3-12 22.9-16.9 35-14.6 35.9-22 73.9-22 112.9s7.4 77 22 112.9c4.9 12.3 10.6 24 16.9 35.2m-7.6 120.8c-148.4-148.4-148.4-389 0-537.4l268.7 268.7-268.7 268.7zM512.2 243.10000000000002l148-148c-11.3-6.4-22.9-12-35-16.9-35.9-14.6-73.9-22-112.9-22s-77 7.4-112.9 22c-12.1 4.9-23.8 10.6-35 16.9l147.8 148m0 113.1L243.5 87.5c148.4-148.4 389-148.4 537.4 0L512.2 356.20000000000005z"  horiz-adv-x="1024" />

    
    <glyph glyph-name="search" unicode="&#58900;" d="M853.988 112.418L704.985 261.422c29.249 49.501 46.054 107.229 46.054 168.891 0 183.636-148.866 332.504-332.503 332.504S86.034 613.949 86.034 430.312 234.9 97.81 418.536 97.81c61.662 0 119.39 16.805 168.892 46.055L736.43-5.138c32.462-32.462 85.094-32.462 117.558 0 32.462 32.461 32.462 85.094 0 117.556z m-435.452 21.339c-163.784 0-296.557 132.775-296.557 296.556 0 163.784 132.773 296.557 296.557 296.557 163.782 0 296.556-132.773 296.556-296.557 0-163.781-132.773-296.556-296.556-296.556z m411.939-115.384c-19.476-19.478-51.056-19.478-70.534 0L615.726 162.589a334.417 334.417 0 0 1 70.421 70.379l148.017-151.781c19.478-19.479 15.789-43.336-3.689-62.814z"  horiz-adv-x="1024" />

    


  </font>
</defs></svg>
